1_Ano/LSD/Projetos_LSD/Aula06/Parte1/simulation/qsim/ShiftRegister_Demo.msim.vcd
$comment
	File created using the following command:
		vcd file ShiftRegister_Demo.msim.vcd -direction
$end
$date
	Thu Apr 21 10:30:39 2022
$end
$version
	ModelSim Version 10.5b
$end
$timescale
	1ps
$end

$scope module shiftregister4_vhd_vec_tst $end
$var wire 1 ! clk $end
$var wire 1 " dataOut [3] $end
$var wire 1 # dataOut [2] $end
$var wire 1 $ dataOut [1] $end
$var wire 1 % dataOut [0] $end
$var wire 1 & sin $end

$scope module i1 $end
$var wire 1 ' gnd $end
$var wire 1 ( vcc $end
$var wire 1 ) unknown $end
$var wire 1 * devoe $end
$var wire 1 + devclrn $end
$var wire 1 , devpor $end
$var wire 1 - ww_devoe $end
$var wire 1 . ww_devclrn $end
$var wire 1 / ww_devpor $end
$var wire 1 0 ww_clk $end
$var wire 1 1 ww_sin $end
$var wire 1 2 ww_dataOut [3] $end
$var wire 1 3 ww_dataOut [2] $end
$var wire 1 4 ww_dataOut [1] $end
$var wire 1 5 ww_dataOut [0] $end
$var wire 1 6 \dataOut[0]~output_o\ $end
$var wire 1 7 \dataOut[1]~output_o\ $end
$var wire 1 8 \dataOut[2]~output_o\ $end
$var wire 1 9 \dataOut[3]~output_o\ $end
$var wire 1 : \clk~input_o\ $end
$var wire 1 ; \sin~input_o\ $end
$var wire 1 < s_shiftReg [3] $end
$var wire 1 = s_shiftReg [2] $end
$var wire 1 > s_shiftReg [1] $end
$var wire 1 ? s_shiftReg [0] $end
$upscope $end
$upscope $end
$enddefinitions $end
#0
$dumpvars
0!
0&
0'
1(
x)
1*
1+
1,
1-
1.
1/
00
01
06
07
08
09
0:
0;
02
03
04
05
0<
0=
0>
0?
0"
0#
0$
0%
$end
#25000
1!
10
1:
#50000
0!
00
0:
#75000
1!
10
1:
#100000
0!
1&
00
11
1;
0:
#125000
1!
10
1:
1?
16
15
1%
#150000
0!
0&
00
01
0;
0:
#175000
1!
10
1:
0?
1>
17
06
14
05
0%
1$
#200000
0!
1&
00
11
1;
0:
#225000
1!
10
1:
1?
0>
1=
18
07
16
13
04
15
1%
0$
1#
#250000
0!
0&
00
01
0;
0:
#275000
1!
10
1:
0?
1>
0=
1<
19
08
17
06
12
03
14
05
0%
1$
0#
1"
#300000
0!
00
0:
#325000
1!
10
1:
0>
1=
0<
09
18
07
02
13
04
0$
1#
0"
#350000
0!
1&
00
11
1;
0:
#375000
1!
10
1:
1?
0=
1<
19
08
16
12
03
15
1%
0#
1"
#400000
0!
0&
00
01
0;
0:
#425000
1!
10
1:
0?
1>
0<
09
17
06
02
14
05
0%
1$
0"
#450000
0!
1&
00
11
1;
0:
#475000
1!
10
1:
1?
0>
1=
18
07
16
13
04
15
1%
0$
1#
#500000
0!
00
0:
#525000
1!
10
1:
1>
0=
1<
19
08
17
12
03
14
1$
0#
1"
#550000
0!
00
0:
#575000
1!
10
1:
1=
0<
09
18
02
13
1#
0"
#600000
0!
0&
00
01
0;
0:
#625000
1!
10
1:
0?
1<
19
06
12
05
0%
1"
#650000
0!
00
0:
#675000
1!
10
1:
0>
07
04
0$
#700000
0!
1&
00
11
1;
0:
#725000
1!
10
1:
1?
0=
08
16
03
15
1%
0#
#750000
0!
0&
00
01
0;
0:
#775000
1!
10
1:
0?
1>
0<
09
17
06
02
14
05
0%
1$
0"
#800000
0!
1&
00
11
1;
0:
#825000
1!
10
1:
1?
0>
1=
18
07
16
13
04
15
1%
0$
1#
#850000
0!
0&
00
01
0;
0:
#875000
1!
10
1:
0?
1>
0=
1<
19
08
17
06
12
03
14
05
0%
1$
0#
1"
#900000
0!
1&
00
11
1;
0:
#925000
1!
10
1:
1?
0>
1=
0<
09
18
07
16
02
13
04
15
1%
0$
1#
0"
#950000
0!
0&
00
01
0;
0:
#975000
1!
10
1:
0?
1>
0=
1<
19
08
17
06
12
03
14
05
0%
1$
0#
1"
