1_Ano/LSD/Projetos_LSD/Aula04/Parte2/simulation/qsim/Register_Demo.msim.vcd
$comment
	File created using the following command:
		vcd file Register_Demo.msim.vcd -direction
$end
$date
	Mon Apr 11 10:49:23 2022
$end
$version
	ModelSim Version 10.5b
$end
$timescale
	1ps
$end

$scope module register8_vhd_vec_tst $end
$var wire 1 ! clk $end
$var wire 1 " dataIn [7] $end
$var wire 1 # dataIn [6] $end
$var wire 1 $ dataIn [5] $end
$var wire 1 % dataIn [4] $end
$var wire 1 & dataIn [3] $end
$var wire 1 ' dataIn [2] $end
$var wire 1 ( dataIn [1] $end
$var wire 1 ) dataIn [0] $end
$var wire 1 * dataOut [7] $end
$var wire 1 + dataOut [6] $end
$var wire 1 , dataOut [5] $end
$var wire 1 - dataOut [4] $end
$var wire 1 . dataOut [3] $end
$var wire 1 / dataOut [2] $end
$var wire 1 0 dataOut [1] $end
$var wire 1 1 dataOut [0] $end
$var wire 1 2 wrEn $end

$scope module i1 $end
$var wire 1 3 gnd $end
$var wire 1 4 vcc $end
$var wire 1 5 unknown $end
$var wire 1 6 devoe $end
$var wire 1 7 devclrn $end
$var wire 1 8 devpor $end
$var wire 1 9 ww_devoe $end
$var wire 1 : ww_devclrn $end
$var wire 1 ; ww_devpor $end
$var wire 1 < ww_clk $end
$var wire 1 = ww_dataIn [7] $end
$var wire 1 > ww_dataIn [6] $end
$var wire 1 ? ww_dataIn [5] $end
$var wire 1 @ ww_dataIn [4] $end
$var wire 1 A ww_dataIn [3] $end
$var wire 1 B ww_dataIn [2] $end
$var wire 1 C ww_dataIn [1] $end
$var wire 1 D ww_dataIn [0] $end
$var wire 1 E ww_dataOut [7] $end
$var wire 1 F ww_dataOut [6] $end
$var wire 1 G ww_dataOut [5] $end
$var wire 1 H ww_dataOut [4] $end
$var wire 1 I ww_dataOut [3] $end
$var wire 1 J ww_dataOut [2] $end
$var wire 1 K ww_dataOut [1] $end
$var wire 1 L ww_dataOut [0] $end
$var wire 1 M ww_wrEn $end
$var wire 1 N \dataOut[0]~output_o\ $end
$var wire 1 O \dataOut[1]~output_o\ $end
$var wire 1 P \dataOut[2]~output_o\ $end
$var wire 1 Q \dataOut[3]~output_o\ $end
$var wire 1 R \dataOut[4]~output_o\ $end
$var wire 1 S \dataOut[5]~output_o\ $end
$var wire 1 T \dataOut[6]~output_o\ $end
$var wire 1 U \dataOut[7]~output_o\ $end
$var wire 1 V \clk~input_o\ $end
$var wire 1 W \dataIn[0]~input_o\ $end
$var wire 1 X \wrEn~input_o\ $end
$var wire 1 Y \r0|q~q\ $end
$var wire 1 Z \dataIn[1]~input_o\ $end
$var wire 1 [ \r1|q~q\ $end
$var wire 1 \ \dataIn[2]~input_o\ $end
$var wire 1 ] \r2|q~q\ $end
$var wire 1 ^ \dataIn[3]~input_o\ $end
$var wire 1 _ \r3|q~q\ $end
$var wire 1 ` \dataIn[4]~input_o\ $end
$var wire 1 a \r4|q~q\ $end
$var wire 1 b \dataIn[5]~input_o\ $end
$var wire 1 c \r5|q~q\ $end
$var wire 1 d \dataIn[6]~input_o\ $end
$var wire 1 e \r6|q~q\ $end
$var wire 1 f \dataIn[7]~input_o\ $end
$var wire 1 g \r7|q~q\ $end
$upscope $end
$upscope $end
$enddefinitions $end
#0
$dumpvars
0!
02
03
14
x5
16
17
18
19
1:
1;
0<
0M
0N
0O
0P
0Q
0R
0S
0T
0U
0V
1W
0X
0Y
0Z
0[
1\
0]
1^
0_
0`
0a
0b
0c
1d
0e
1f
0g
1"
1#
0$
0%
1&
1'
0(
1)
1=
1>
0?
0@
1A
1B
0C
1D
0E
0F
0G
0H
0I
0J
0K
0L
0*
0+
0,
0-
0.
0/
00
01
$end
#20000
12
1M
1X
#40000
0#
1%
0&
0'
0B
0A
1@
0>
0d
1`
0^
0\
#50000
1!
1<
1V
1Y
1a
1g
1U
1R
1N
1E
1H
1L
11
1-
1*
#80000
1#
1&
1'
0"
1(
1C
1B
1A
1>
0=
0f
1d
1^
1\
1Z
#100000
0!
0<
0V
#120000
0#
0&
0'
0%
0)
0D
0B
0A
0@
0>
0d
0`
0^
0\
0W
#150000
1!
1<
1V
0Y
1[
0a
0g
0U
0R
1O
0N
0E
0H
1K
0L
01
10
0-
0*
#160000
1%
1"
1$
1@
1?
1=
1f
1b
1`
#200000
0%
0!
1#
1&
1'
0(
02
0C
1B
1A
0@
1>
0<
0M
0X
0V
1d
0`
1^
1\
0Z
#240000
0#
0&
0'
1(
0"
1)
1D
1C
0B
0A
0>
0=
0f
0d
0^
0\
1Z
1W
#250000
1!
1<
1V
#280000
1'
0(
1"
0)
0D
0C
1B
1=
1f
1\
0Z
0W
#300000
0!
0<
0V
#320000
0'
1(
12
1C
0B
1M
1X
0\
1Z
#350000
1!
1<
1V
1c
1g
1U
1S
1E
1G
1,
1*
#360000
1'
0"
1)
1#
1&
1%
1D
1B
1A
1@
1>
0=
0f
1d
1`
1^
1\
1W
#400000
0'
1"
0)
0%
0!
0(
0D
0C
0B
0@
1=
0<
0V
1f
0`
0\
0Z
0W
#440000
1(
0&
1C
0A
0^
1Z
#450000
1!
1<
1V
1e
1T
1F
1+
#480000
1&
0"
1%
0#
0$
1A
1@
0?
0>
0=
0f
0d
0b
1`
1^
#500000
0!
0<
0V
#520000
0&
1#
0(
1)
1D
0C
0A
1>
1d
0^
0Z
1W
#550000
1!
1<
1V
1Y
0[
1a
0c
0g
0U
0S
1R
0O
1N
0E
0G
1H
0K
1L
11
00
1-
0,
0*
#560000
1(
1"
0%
1C
0@
1=
1f
0`
1Z
#600000
0!
1&
0#
0)
1$
02
0<
0D
1A
1?
0>
0M
0X
0d
1b
1^
0W
0V
#640000
1#
1)
0$
1'
1D
1B
0?
1>
1d
0b
1\
1W
#650000
1!
1<
1V
#680000
1$
0'
0"
1%
0B
1@
1?
0=
0f
1b
1`
0\
#700000
0!
0<
0V
#720000
1"
0%
0&
0(
0C
0A
0@
1=
1f
0`
0^
0Z
#740000
12
1M
1X
#750000
1!
1<
1V
0a
1c
1g
1U
1S
0R
1E
1G
0H
0-
1,
1*
#760000
1&
1(
1'
0)
0D
1C
1B
1A
1^
1\
1Z
0W
#800000
0(
1)
0!
1%
0$
0#
1D
0C
1@
0?
0>
0<
0V
0d
0b
1`
0Z
1W
#840000
1(
1$
1#
0'
1C
0B
1?
1>
1d
1b
0\
1Z
#850000
1!
1<
1V
1[
1_
1a
1R
1Q
1O
1H
1I
1K
10
1.
1-
#880000
0$
1'
0%
0&
0"
1B
0A
0@
0?
0=
0f
0b
0`
0^
1\
#900000
0!
0<
0V
#920000
0'
1%
1&
0#
0)
0D
0B
1A
1@
0>
0d
1`
1^
0\
0W
#940000
02
0M
0X
#950000
1!
1<
1V
#960000
1'
1"
0(
0C
1B
1=
1f
1\
0Z
