1_Ano/LSD/Projetos_LSD/Aula04/Parte3/simulation/qsim/Counter_Demo.msim.vcd
$comment
	File created using the following command:
		vcd file Counter_Demo.msim.vcd -direction
$end
$date
	Mon Apr 11 11:20:46 2022
$end
$version
	ModelSim Version 10.5b
$end
$timescale
	1ps
$end

$scope module counterdown4_vhd_vec_tst $end
$var wire 1 ! clk $end
$var wire 1 " count [3] $end
$var wire 1 # count [2] $end
$var wire 1 $ count [1] $end
$var wire 1 % count [0] $end

$scope module i1 $end
$var wire 1 & gnd $end
$var wire 1 ' vcc $end
$var wire 1 ( unknown $end
$var wire 1 ) devoe $end
$var wire 1 * devclrn $end
$var wire 1 + devpor $end
$var wire 1 , ww_devoe $end
$var wire 1 - ww_devclrn $end
$var wire 1 . ww_devpor $end
$var wire 1 / ww_clk $end
$var wire 1 0 ww_count [3] $end
$var wire 1 1 ww_count [2] $end
$var wire 1 2 ww_count [1] $end
$var wire 1 3 ww_count [0] $end
$var wire 1 4 \count[0]~output_o\ $end
$var wire 1 5 \count[1]~output_o\ $end
$var wire 1 6 \count[2]~output_o\ $end
$var wire 1 7 \count[3]~output_o\ $end
$var wire 1 8 \clk~input_o\ $end
$var wire 1 9 \s_count[0]~0_combout\ $end
$var wire 1 : \Add0~0_combout\ $end
$var wire 1 ; \Add0~1_combout\ $end
$var wire 1 < \Add0~2_combout\ $end
$var wire 1 = s_count [3] $end
$var wire 1 > s_count [2] $end
$var wire 1 ? s_count [1] $end
$var wire 1 @ s_count [0] $end
$upscope $end
$upscope $end
$enddefinitions $end
#0
$dumpvars
0!
0&
1'
x(
1)
1*
1+
1,
1-
1.
0/
04
05
06
07
08
19
1:
1;
1<
00
01
02
03
0=
0>
0?
0@
0"
0#
0$
0%
$end
#50000
1!
1/
18
1@
1?
1>
1=
09
17
16
15
14
10
11
12
13
1%
1$
1#
1"
#100000
0!
0/
08
#150000
1!
1/
18
0@
19
0:
04
03
0%
#200000
0!
0/
08
#250000
1!
1/
18
1@
0?
09
05
14
02
13
1%
0$
#300000
0!
0/
08
#350000
1!
1/
18
0@
19
1:
0;
04
03
0%
#400000
0!
0/
08
#450000
1!
1/
18
1@
1?
0>
09
06
15
14
01
12
13
1%
1$
0#
#500000
0!
0/
08
#550000
1!
1/
18
0@
19
0:
04
03
0%
#600000
0!
0/
08
#650000
1!
1/
18
1@
0?
09
05
14
02
13
1%
0$
#700000
0!
0/
08
#750000
1!
1/
18
0@
19
1:
1;
0<
04
03
0%
#800000
0!
0/
08
#850000
1!
1/
18
1@
1?
1>
0=
09
07
16
15
14
00
11
12
13
1%
1$
1#
0"
#900000
0!
0/
08
#950000
1!
1/
18
0@
19
0:
04
03
0%
