1_Ano/LSD/Projetos_LSD/Aula06/Parte2/simulation/qsim/SeqShiftUnit_Demo.msim.vcd
$comment
	File created using the following command:
		vcd file SeqShiftUnit_Demo.msim.vcd -direction
$end
$date
	Mon Apr 25 14:44:29 2022
$end
$version
	ModelSim Version 10.5b
$end
$timescale
	1ps
$end

$scope module seqshiftunit_vhd_vec_tst $end
$var wire 1 ! clk $end
$var wire 1 " dataIn [7] $end
$var wire 1 # dataIn [6] $end
$var wire 1 $ dataIn [5] $end
$var wire 1 % dataIn [4] $end
$var wire 1 & dataIn [3] $end
$var wire 1 ' dataIn [2] $end
$var wire 1 ( dataIn [1] $end
$var wire 1 ) dataIn [0] $end
$var wire 1 * dataOut [7] $end
$var wire 1 + dataOut [6] $end
$var wire 1 , dataOut [5] $end
$var wire 1 - dataOut [4] $end
$var wire 1 . dataOut [3] $end
$var wire 1 / dataOut [2] $end
$var wire 1 0 dataOut [1] $end
$var wire 1 1 dataOut [0] $end
$var wire 1 2 dirLeft $end
$var wire 1 3 loadEn $end
$var wire 1 4 rotate $end
$var wire 1 5 shArith $end
$var wire 1 6 siLeft $end
$var wire 1 7 siRight $end

$scope module i1 $end
$var wire 1 8 gnd $end
$var wire 1 9 vcc $end
$var wire 1 : unknown $end
$var wire 1 ; devoe $end
$var wire 1 < devclrn $end
$var wire 1 = devpor $end
$var wire 1 > ww_devoe $end
$var wire 1 ? ww_devclrn $end
$var wire 1 @ ww_devpor $end
$var wire 1 A ww_clk $end
$var wire 1 B ww_dataIn [7] $end
$var wire 1 C ww_dataIn [6] $end
$var wire 1 D ww_dataIn [5] $end
$var wire 1 E ww_dataIn [4] $end
$var wire 1 F ww_dataIn [3] $end
$var wire 1 G ww_dataIn [2] $end
$var wire 1 H ww_dataIn [1] $end
$var wire 1 I ww_dataIn [0] $end
$var wire 1 J ww_siLeft $end
$var wire 1 K ww_siRight $end
$var wire 1 L ww_loadEn $end
$var wire 1 M ww_rotate $end
$var wire 1 N ww_dirLeft $end
$var wire 1 O ww_shArith $end
$var wire 1 P ww_dataOut [7] $end
$var wire 1 Q ww_dataOut [6] $end
$var wire 1 R ww_dataOut [5] $end
$var wire 1 S ww_dataOut [4] $end
$var wire 1 T ww_dataOut [3] $end
$var wire 1 U ww_dataOut [2] $end
$var wire 1 V ww_dataOut [1] $end
$var wire 1 W ww_dataOut [0] $end
$var wire 1 X \clk~inputclkctrl_INCLK_bus\ [3] $end
$var wire 1 Y \clk~inputclkctrl_INCLK_bus\ [2] $end
$var wire 1 Z \clk~inputclkctrl_INCLK_bus\ [1] $end
$var wire 1 [ \clk~inputclkctrl_INCLK_bus\ [0] $end
$var wire 1 \ \dataOut[0]~output_o\ $end
$var wire 1 ] \dataOut[1]~output_o\ $end
$var wire 1 ^ \dataOut[2]~output_o\ $end
$var wire 1 _ \dataOut[3]~output_o\ $end
$var wire 1 ` \dataOut[4]~output_o\ $end
$var wire 1 a \dataOut[5]~output_o\ $end
$var wire 1 b \dataOut[6]~output_o\ $end
$var wire 1 c \dataOut[7]~output_o\ $end
$var wire 1 d \clk~input_o\ $end
$var wire 1 e \clk~inputclkctrl_outclk\ $end
$var wire 1 f \dirLeft~input_o\ $end
$var wire 1 g \rotate~input_o\ $end
$var wire 1 h \shArith~input_o\ $end
$var wire 1 i \siRight~input_o\ $end
$var wire 1 j \s_shiftReg[7]~9_combout\ $end
$var wire 1 k \s_shiftReg[7]~10_combout\ $end
$var wire 1 l \s_shiftReg[7]~7_combout\ $end
$var wire 1 m \s_shiftReg[7]~feeder_combout\ $end
$var wire 1 n \dataIn[7]~input_o\ $end
$var wire 1 o \loadEn~input_o\ $end
$var wire 1 p \s_shiftReg[6]~6_combout\ $end
$var wire 1 q \dataIn[6]~input_o\ $end
$var wire 1 r \s_shiftReg[5]~5_combout\ $end
$var wire 1 s \dataIn[5]~input_o\ $end
$var wire 1 t \s_shiftReg[4]~4_combout\ $end
$var wire 1 u \dataIn[4]~input_o\ $end
$var wire 1 v \s_shiftReg[3]~3_combout\ $end
$var wire 1 w \dataIn[3]~input_o\ $end
$var wire 1 x \s_shiftReg[2]~2_combout\ $end
$var wire 1 y \dataIn[2]~input_o\ $end
$var wire 1 z \s_shiftReg[1]~1_combout\ $end
$var wire 1 { \dataIn[1]~input_o\ $end
$var wire 1 | \siLeft~input_o\ $end
$var wire 1 } \s_shiftReg~8_combout\ $end
$var wire 1 ~ \s_shiftReg[0]~0_combout\ $end
$var wire 1 !! \dataIn[0]~input_o\ $end
$var wire 1 "! s_shiftReg [7] $end
$var wire 1 #! s_shiftReg [6] $end
$var wire 1 $! s_shiftReg [5] $end
$var wire 1 %! s_shiftReg [4] $end
$var wire 1 &! s_shiftReg [3] $end
$var wire 1 '! s_shiftReg [2] $end
$var wire 1 (! s_shiftReg [1] $end
$var wire 1 )! s_shiftReg [0] $end
$var wire 1 *! \ALT_INV_clk~inputclkctrl_outclk\ $end
$upscope $end
$upscope $end
$enddefinitions $end
#0
$dumpvars
0!
12
13
14
05
06
07
08
19
x:
1;
1<
1=
1>
1?
1@
0A
0J
0K
1L
1M
1N
0O
0\
0]
0^
0_
0`
0a
0b
0c
0d
0e
1f
1g
0h
0i
1j
0k
0l
0m
1n
1o
0p
0q
0r
0s
0t
1u
0v
1w
0x
1y
0z
1{
0|
0}
0~
0!!
1*!
1"
0#
0$
1%
1&
1'
1(
0)
0*
0+
0,
0-
0.
0/
00
01
1B
0C
0D
1E
1F
1G
1H
0I
0P
0Q
0R
0S
0T
0U
0V
0W
0"!
0#!
0$!
0%!
0&!
0'!
0(!
0)!
1X
1Y
1Z
0[
$end
#35000
1!
1A
1d
1[
1e
0*!
#50000
0"
1#
0%
0&
0(
1)
1I
0H
0F
0E
1C
0B
0n
1q
0u
0w
0{
1!!
#60000
0!
0A
0d
0[
0e
1*!
1#!
1'!
1)!
1k
1v
1z
1l
1m
1\
1^
1b
1W
1U
1Q
11
1/
1+
#85000
1!
1A
1d
1[
1e
0*!
#100000
0#
1%
1&
1(
0'
1H
0G
1F
1E
0C
0q
1u
1w
0y
1{
#110000
0!
0A
0d
0[
0e
1*!
0#!
1%!
1&!
0'!
1(!
1t
1x
0v
0l
1r
0m
1]
0^
1_
1`
0b
1V
0U
1T
1S
0Q
10
0/
1.
1-
0+
#135000
1!
1A
1d
1[
1e
0*!
#150000
0&
0(
1'
0)
1$
0I
0H
1G
0F
1D
1s
0w
1y
0{
0!!
#160000
0!
0A
0d
0[
0e
1*!
1$!
0&!
1'!
0(!
0)!
0k
1v
0z
0x
1p
0t
0\
0]
1^
0_
1a
0W
0V
1U
0T
1R
01
00
1/
0.
1,
#185000
1!
1A
1d
1[
1e
0*!
#200000
1&
0$
1#
0%
1F
0E
0D
1C
1q
0s
0u
1w
#210000
0!
0A
0d
0[
0e
1*!
1#!
0$!
0%!
1&!
0p
1t
1l
0r
1m
1_
0`
0a
1b
1T
0S
0R
1Q
1.
0-
0,
1+
#235000
1!
1A
1d
1[
1e
0*!
#250000
1$
0#
0'
0G
1D
0C
0q
1s
0y
#260000
0!
0A
0d
0[
0e
1*!
0#!
1$!
0'!
0v
1p
0l
0m
0^
1a
0b
0U
1R
0Q
0/
1,
0+
#285000
1!
1A
1d
1[
1e
0*!
#300000
0$
0&
1%
1(
1"
1H
0F
1E
0D
1B
1n
0s
1u
0w
1{
#310000
0!
0A
0d
0[
0e
1*!
1"!
0$!
1%!
0&!
1(!
1x
1r
0t
0p
1}
1~
1]
0_
1`
0a
1c
1V
0T
1S
0R
1P
10
0.
1-
0,
1*
#335000
1!
1A
1d
1[
1e
0*!
#350000
1$
0"
1#
1)
1I
1D
1C
0B
0n
1q
1s
1!!
#360000
0!
0A
0d
0[
0e
1*!
0"!
1#!
1$!
1)!
1k
1z
1l
1p
0}
0~
1m
1\
1a
1b
0c
1W
1R
1Q
0P
11
1,
1+
0*
#385000
1!
1A
1d
1[
1e
0*!
#400000
0$
0(
0H
0D
0s
0{
#410000
0!
0A
0d
0[
0e
1*!
0$!
0(!
0x
0p
0]
0a
0V
0R
00
0,
#435000
1!
1A
1d
1[
1e
0*!
#450000
1(
1&
0%
1'
1H
1G
1F
0E
0u
1w
1y
1{
#460000
0!
0A
0d
0[
0e
1*!
0%!
1&!
1'!
1(!
1t
1x
0r
1v
1]
1^
1_
0`
1V
1U
1T
0S
10
1/
1.
0-
#485000
1!
1A
1d
1[
1e
0*!
#500000
0&
1%
0'
1"
0G
0F
1E
1B
1n
1u
0w
0y
#510000
0!
0A
0d
0[
0e
1*!
1"!
1%!
0&!
0'!
0t
1r
0v
1}
1~
0^
0_
1`
1c
0U
0T
1S
1P
0/
0.
1-
1*
#535000
1!
1A
1d
1[
1e
0*!
#550000
1&
0%
1'
1$
0#
1G
1F
0E
1D
0C
0q
1s
0u
1w
1y
#560000
0!
0A
0d
0[
0e
1*!
0#!
1$!
0%!
1&!
1'!
1v
1p
1t
0l
0r
0m
1^
1_
0`
1a
0b
1U
1T
0S
1R
0Q
1/
1.
0-
1,
0+
#585000
1!
1A
1d
1[
1e
0*!
#600000
0&
0$
0"
0(
0H
0F
0D
0B
0n
0s
0w
0{
#610000
0!
0A
0d
0[
0e
1*!
0"!
0$!
0&!
0(!
0x
0t
0p
0}
0~
0]
0_
0a
0c
0V
0T
0R
0P
00
0.
0,
0*
#635000
1!
1A
1d
1[
1e
0*!
#650000
1&
1$
1(
1#
0)
0I
1H
1F
1D
1C
1q
1s
1w
1{
0!!
#660000
0!
0A
0d
0[
0e
1*!
1#!
1$!
1&!
1(!
0)!
0k
0z
1x
1p
1t
1l
1m
0\
1]
1_
1a
1b
0W
1V
1T
1R
1Q
01
10
1.
1,
1+
#685000
1!
1A
1d
1[
1e
0*!
#700000
1)
1"
1I
1B
1n
1!!
#710000
0!
0A
0d
0[
0e
1*!
1"!
1)!
1k
1z
1}
1~
1\
1c
1W
1P
11
1*
#735000
1!
1A
1d
1[
1e
0*!
#750000
0)
0"
0&
0#
0'
0I
0G
0F
0C
0B
0n
0q
0w
0y
0!!
#760000
0!
0A
0d
0[
0e
1*!
0"!
0#!
0&!
0'!
0)!
0k
0v
0z
0t
0l
0}
0~
0m
0\
0^
0_
0b
0c
0W
0U
0T
0Q
0P
01
0/
0.
0+
0*
#785000
1!
1A
1d
1[
1e
0*!
#800000
1'
0$
0(
0H
1G
0D
0s
1y
0{
#810000
0!
0A
0d
0[
0e
1*!
0$!
1'!
0(!
0x
1v
0p
0]
1^
0a
0V
1U
0R
00
1/
0,
#835000
1!
1A
1d
1[
1e
0*!
#850000
0'
1(
1"
1#
1H
0G
1C
1B
1n
1q
0y
1{
#860000
0!
0A
0d
0[
0e
1*!
1"!
1#!
0'!
1(!
1x
0v
1l
1}
1~
1m
1]
0^
1b
1c
1V
0U
1Q
1P
10
0/
1+
1*
#885000
1!
1A
1d
1[
1e
0*!
#900000
0(
0"
1$
1&
0H
1F
1D
0B
0n
1s
1w
0{
#910000
0!
0A
0d
0[
0e
1*!
0"!
1$!
1&!
0(!
0x
1t
1p
0}
0~
0]
1_
1a
0c
0V
1T
1R
0P
00
1.
1,
0*
#935000
1!
1A
1d
1[
1e
0*!
#950000
1(
1"
0&
0#
1)
1%
1I
1H
0F
1E
0C
1B
1n
0q
1u
0w
1{
1!!
#960000
0!
0A
0d
0[
0e
1*!
1"!
0#!
1%!
0&!
1(!
1)!
1k
1z
0t
1x
0l
1r
1}
1~
0m
1\
1]
0_
1`
0b
1c
1W
1V
0T
1S
0Q
1P
11
10
0.
1-
0+
1*
#985000
1!
1A
1d
1[
1e
0*!
#990000
0!
0A
0d
0[
0e
1*!
