1_Ano/LSD/Projetos_LSD/Aula01/Parte1/guiao01/simulation/qsim/GateDemo.msim.vcd
$comment
	File created using the following command:
		vcd file GateDemo.msim.vcd -direction
$end
$date
	Thu Mar 17 09:34:39 2022
$end
$version
	ModelSim Version 10.5b
$end
$timescale
	1ps
$end

$scope module gatedemo_vhd_vec_tst $end
$var wire 1 ! LEDR [0] $end
$var wire 1 " SW [1] $end
$var wire 1 # SW [0] $end

$scope module i1 $end
$var wire 1 $ gnd $end
$var wire 1 % vcc $end
$var wire 1 & unknown $end
$var wire 1 ' devoe $end
$var wire 1 ( devclrn $end
$var wire 1 ) devpor $end
$var wire 1 * ww_devoe $end
$var wire 1 + ww_devclrn $end
$var wire 1 , ww_devpor $end
$var wire 1 - ww_LEDR [0] $end
$var wire 1 . ww_SW [1] $end
$var wire 1 / ww_SW [0] $end
$var wire 1 0 \LEDR[0]~output_o\ $end
$var wire 1 1 \SW[1]~input_o\ $end
$var wire 1 2 \SW[0]~input_o\ $end
$var wire 1 3 \AND2_1~combout\ $end
$upscope $end
$upscope $end
$enddefinitions $end
#0
$dumpvars
0$
1%
x&
1'
1(
1)
1*
1+
1,
00
01
02
03
0"
0#
0-
0.
0/
0!
$end
#40000
1#
1/
12
#120000
0#
0/
02
#150000
1"
1.
11
#210000
0"
0.
01
#280000
1#
1/
12
#310000
1"
1.
11
13
10
1-
1!
#400000
0"
0.
01
03
00
0-
0!
#440000
0#
0/
02
#510000
1#
1"
1/
1.
11
12
13
10
1-
1!
#550000
0#
0"
0/
0.
01
02
03
00
0-
0!
#650000
1"
1.
11
#670000
1#
1/
12
13
10
1-
1!
#740000
0#
0/
02
03
00
0-
0!
#770000
0"
0.
01
