1_Ano/LSD/Projetos_LSD/Aula02/Parte4/simulation/qsim/PEnc4_2Demo.msim.vcd
$comment
	File created using the following command:
		vcd file PEnc4_2Demo.msim.vcd -direction
$end
$date
	Mon Mar 28 18:54:48 2022
$end
$version
	ModelSim Version 10.5b
$end
$timescale
	1ps
$end

$scope module penc4_2_vhd_vec_tst $end
$var wire 1 ! INPUT [3] $end
$var wire 1 " INPUT [2] $end
$var wire 1 # INPUT [1] $end
$var wire 1 $ INPUT [0] $end
$var wire 1 % OUTPUT [2] $end
$var wire 1 & OUTPUT [1] $end
$var wire 1 ' OUTPUT [0] $end

$scope module i1 $end
$var wire 1 ( gnd $end
$var wire 1 ) vcc $end
$var wire 1 * unknown $end
$var wire 1 + devoe $end
$var wire 1 , devclrn $end
$var wire 1 - devpor $end
$var wire 1 . ww_devoe $end
$var wire 1 / ww_devclrn $end
$var wire 1 0 ww_devpor $end
$var wire 1 1 ww_INPUT [3] $end
$var wire 1 2 ww_INPUT [2] $end
$var wire 1 3 ww_INPUT [1] $end
$var wire 1 4 ww_INPUT [0] $end
$var wire 1 5 ww_OUTPUT [2] $end
$var wire 1 6 ww_OUTPUT [1] $end
$var wire 1 7 ww_OUTPUT [0] $end
$var wire 1 8 \OUTPUT[0]~output_o\ $end
$var wire 1 9 \OUTPUT[1]~output_o\ $end
$var wire 1 : \OUTPUT[2]~output_o\ $end
$var wire 1 ; \INPUT[2]~input_o\ $end
$var wire 1 < \INPUT[3]~input_o\ $end
$var wire 1 = \INPUT[0]~input_o\ $end
$var wire 1 > \INPUT[1]~input_o\ $end
$var wire 1 ? \OUTPUT~0_combout\ $end
$var wire 1 @ \OUTPUT~1_combout\ $end
$var wire 1 A \OUTPUT~2_combout\ $end
$var wire 1 B \ALT_INV_OUTPUT~2_combout\ $end
$upscope $end
$upscope $end
$enddefinitions $end
#0
$dumpvars
0(
1)
x*
1+
1,
1-
1.
1/
10
18
09
1:
1;
0<
0=
0>
1?
0@
0A
1B
0!
1"
0#
0$
01
12
03
04
15
06
17
1%
0&
1'
$end
#40000
1!
1#
13
11
1<
1>
1@
19
16
1&
#80000
0#
03
0>
#120000
1#
0!
0"
1$
14
13
02
01
0<
0;
1>
1=
1A
0B
0:
05
0%
#200000
0#
1!
03
11
1<
0>
0A
1B
1:
15
1%
#240000
1#
1"
0$
04
13
12
1;
1>
0=
#280000
0#
1$
0!
14
03
01
0<
0>
1=
0@
09
06
0&
#320000
1#
0$
1!
0"
04
13
02
11
1<
0;
1>
0=
1@
19
16
1&
#360000
0#
1$
0!
14
03
01
0<
0>
1=
0@
1A
0B
09
0:
06
05
0&
0%
#400000
1#
1!
1"
13
12
11
1<
1;
1>
1@
0A
1B
19
1:
16
15
1&
1%
#440000
0#
0"
0$
04
03
02
0;
0>
0=
#480000
1#
1"
0!
13
12
01
0<
1;
1>
0@
09
06
0&
#520000
0"
02
0;
1@
1A
0B
19
0:
16
05
1&
0%
#560000
1"
0#
1!
03
12
11
1<
1;
0>
0A
1B
1:
15
1%
#600000
1#
0!
13
01
0<
1>
0@
09
06
0&
#640000
1!
0"
1$
14
02
11
1<
0;
1=
1@
19
16
1&
#680000
0$
04
0=
#720000
1$
0#
14
03
0>
1=
#760000
1#
0!
13
01
0<
1>
1A
0B
0:
05
0%
#800000
0$
1"
04
12
1;
0=
0@
0A
1B
09
1:
06
15
0&
1%
#840000
1$
14
1=
#880000
0"
0#
1!
03
02
11
1<
0;
0>
1@
19
16
1&
#920000
0!
01
0<
0@
1A
0B
09
0:
06
05
0&
0%
#960000
1!
1#
13
11
1<
1>
1@
0A
1B
19
1:
16
15
1&
1%
