1_Ano/LSD/Projetos_LSD/Aula02/Parte1/simulation/qsim/Dec2_4EnDemo.msim.vcd
$comment
	File created using the following command:
		vcd file Dec2_4EnDemo.msim.vcd -direction
$end
$date
	Tue Mar 22 21:11:05 2022
$end
$version
	ModelSim Version 10.5b
$end
$timescale
	1ps
$end

$scope module dec2_4en_vhd_vec_tst $end
$var wire 1 ! enable $end
$var wire 1 " inputs [1] $end
$var wire 1 # inputs [0] $end
$var wire 1 $ outputs [3] $end
$var wire 1 % outputs [2] $end
$var wire 1 & outputs [1] $end
$var wire 1 ' outputs [0] $end

$scope module i1 $end
$var wire 1 ( gnd $end
$var wire 1 ) vcc $end
$var wire 1 * unknown $end
$var wire 1 + devoe $end
$var wire 1 , devclrn $end
$var wire 1 - devpor $end
$var wire 1 . ww_devoe $end
$var wire 1 / ww_devclrn $end
$var wire 1 0 ww_devpor $end
$var wire 1 1 ww_enable $end
$var wire 1 2 ww_inputs [1] $end
$var wire 1 3 ww_inputs [0] $end
$var wire 1 4 ww_outputs [3] $end
$var wire 1 5 ww_outputs [2] $end
$var wire 1 6 ww_outputs [1] $end
$var wire 1 7 ww_outputs [0] $end
$var wire 1 8 \outputs[0]~output_o\ $end
$var wire 1 9 \outputs[1]~output_o\ $end
$var wire 1 : \outputs[2]~output_o\ $end
$var wire 1 ; \outputs[3]~output_o\ $end
$var wire 1 < \enable~input_o\ $end
$var wire 1 = \inputs[1]~input_o\ $end
$var wire 1 > \inputs[0]~input_o\ $end
$var wire 1 ? \outputs~0_combout\ $end
$var wire 1 @ \outputs~1_combout\ $end
$var wire 1 A \outputs~2_combout\ $end
$var wire 1 B \outputs~3_combout\ $end
$upscope $end
$upscope $end
$enddefinitions $end
#0
$dumpvars
0!
0(
1)
x*
1+
1,
1-
1.
1/
10
01
08
09
0:
0;
0<
1=
0>
0?
0@
0A
0B
1"
0#
12
03
04
05
06
07
0$
0%
0&
0'
$end
#80000
0"
1#
13
02
0=
1>
#120000
1"
0#
03
12
1=
0>
#160000
0"
1#
13
02
0=
1>
#200000
1"
0#
03
12
1=
0>
#240000
0"
02
0=
#280000
1#
1!
13
11
1<
1>
1@
19
16
1&
#320000
0#
03
0>
1?
0@
09
18
06
17
1'
0&
#360000
1#
1"
13
12
1=
1>
0?
1B
1;
08
14
07
0'
1$
#400000
0#
0"
03
02
0=
0>
1?
0B
0;
18
04
17
1'
0$
#440000
1#
1"
13
12
1=
1>
0?
1B
1;
08
14
07
0'
1$
#480000
0#
0!
03
01
0<
0>
0B
0;
04
0$
#560000
1#
13
1>
#600000
0#
03
0>
#640000
1!
0"
11
02
0=
1<
1?
18
17
1'
#680000
1"
12
1=
0?
1A
1:
08
15
07
0'
1%
#760000
0"
1#
13
02
0=
1>
1@
0A
0:
19
05
16
1&
0%
#800000
0#
0!
03
01
0<
0>
0@
09
06
0&
#840000
1"
12
1=
#920000
1#
13
1>
#960000
0#
03
0>
